Digital_Design/ex05/simulation/qsim/ex05.msim.vcd
$comment
	File created using the following command:
		vcd file ex05.msim.vcd -direction
$end
$date
	Wed Mar 23 16:17:18 2022
$end
$version
	ModelSim Version 10.5b
$end
$timescale
	1ps
$end

$scope module ex05_vlg_vec_tst $end
$var reg 1 ! A $end
$var reg 1 " B $end
$var reg 1 # C $end
$var reg 1 $ EN $end
$var wire 1 % Q0 $end
$var wire 1 & Q1 $end
$var wire 1 ' Q2 $end
$var wire 1 ( Q3 $end
$var wire 1 ) Q4 $end
$var wire 1 * Q5 $end
$var wire 1 + Q6 $end
$var wire 1 , Q7 $end

$scope module i1 $end
$var wire 1 - gnd $end
$var wire 1 . vcc $end
$var wire 1 / unknown $end
$var tri1 1 0 devclrn $end
$var tri1 1 1 devpor $end
$var tri1 1 2 devoe $end
$var wire 1 3 ~QUARTUS_CREATED_GND~I_combout $end
$var wire 1 4 ~QUARTUS_CREATED_UNVM~~busy $end
$var wire 1 5 ~QUARTUS_CREATED_ADC1~~eoc $end
$var wire 1 6 ~QUARTUS_CREATED_ADC2~~eoc $end
$var wire 1 7 Q0~output_o $end
$var wire 1 8 Q1~output_o $end
$var wire 1 9 Q2~output_o $end
$var wire 1 : Q3~output_o $end
$var wire 1 ; Q4~output_o $end
$var wire 1 < Q5~output_o $end
$var wire 1 = Q6~output_o $end
$var wire 1 > Q7~output_o $end
$var wire 1 ? B~input_o $end
$var wire 1 @ A~input_o $end
$var wire 1 A C~input_o $end
$var wire 1 B EN~input_o $end
$var wire 1 C inst3~combout $end
$var wire 1 D inst4~combout $end
$var wire 1 E inst5~combout $end
$var wire 1 F inst6~combout $end
$var wire 1 G inst7~combout $end
$var wire 1 H inst8~combout $end
$var wire 1 I inst9~combout $end
$var wire 1 J inst10~combout $end
$upscope $end
$upscope $end
$enddefinitions $end
#0
$dumpvars
0!
0"
1#
1$
0%
0&
0'
0(
1)
0*
0+
0,
0-
1.
x/
10
11
12
03
z4
z5
z6
07
08
09
0:
1;
0<
0=
0>
0?
0@
1A
1B
0C
0D
0E
0F
1G
0H
0I
0J
$end
#50000
1"
1!
1@
1?
1J
0G
0;
1>
1,
0)
#150000
0"
0?
0J
1H
1<
0>
0,
1*
#200000
0!
1"
1?
0@
1I
0H
0<
1=
1+
0*
#250000
0#
1!
1@
0A
0I
1F
1:
0=
0+
1(
#300000
0"
0!
0@
0?
0F
1C
17
0:
0(
1%
#450000
1#
1"
1!
1@
1?
1A
1J
0C
07
1>
1,
0%
#500000
0#
0!
0@
0A
0J
1E
19
0>
0,
1'
#550000
1!
1@
1F
0E
09
1:
1(
0'
#600000
0"
1#
1A
0?
1H
0F
0:
1<
1*
0(
#650000
0!
1"
1?
0@
1I
0H
0<
1=
1+
0*
#700000
0#
0A
0I
1E
19
0=
0+
1'
#750000
1!
0"
0?
1@
0E
1D
18
09
0'
1&
#800000
1"
1?
1F
0D
08
1:
1(
0&
#850000
0!
0@
0F
1E
19
0:
0(
1'
#900000
0"
0?
0E
1C
17
09
0'
1%
#950000
1"
1?
1E
0C
07
19
1'
0%
